<svg width="27" height="27" viewBox="0 0 27 27" fill="none" xmlns="http://www.w3.org/2000/svg">
<circle cx="13.6151" cy="13.4291" r="12.9776" fill="#F8F9F9"/>
<g clip-path="url(#clip0_1042_491)">
<path d="M16.3959 8.79443H15.0055C14.3908 8.79443 13.8014 9.03859 13.3668 9.47319C12.9322 9.9078 12.688 10.4972 12.688 11.1119V12.5023H11.2976V14.3563H12.688V18.0641H14.542V14.3563H15.9324L16.3959 12.5023H14.542V11.1119C14.542 10.9889 14.5908 10.871 14.6777 10.7841C14.7646 10.6972 14.8825 10.6484 15.0055 10.6484H16.3959V8.79443Z" fill="#29CDB5"/>
</g>
<defs>
<clipPath id="clip0_1042_491">
<rect width="11.1237" height="11.1237" fill="white" transform="translate(8.05304 7.86731)"/>
</clipPath>
</defs>
</svg>
